country,referer,countNonFallbackImps,expNetPayout,bannerId,countFallbackImps,networkName,language,dspId,landingPageId,expPubPayout,pubPayablePayout,deviceMaker,adPosition,isCookieAccepted,bidCurrencyUsd,geoId,browserVersion,browserName,siteAppId,actPubPayout,impid,height,zip,deviceType,serviceFee,eventId,bidCurrency,campaignType,actNetEur,countCreatives,sectionCategory,campaignId,actNetOther,networkAdId,ipAddress,eventType,netPayablePayout,actNetPayout,landingPageDomain,creativeAttr,requestid,domain,actionId,bidfloor,countNoAds,region,countRequests,countClicks,city,timezone,dealId,isOrganic,requesturi,countBids,isFloorOptimized,creativeId,bidCurrencyOther,publisherId,osVersion,lineItemType,networkCampaignId,isAnonymized,siteCategory,event,bidCurrencyEur,winBidder,email,timestamp,os,lineItemId,countVideo,mobile,isSecure,userId,directPayment,uri,agencyName,advertiserId,actNetUsd,actionType,bidderCreativeId,creativeType,width,videoEventType,isLowerBidfloor,deviceModel,seatId,partnerId,countImpressions,bid,pricingType,user-agent
,,,,,,,,,,,,Other,,,,,58,Chrome,,,,,,PC,,20413859-a804-11e7-ae29-0242c0a80006,,,,,,,,,192.168.0.1,36,,,,,,,,,,,,,,UTC,,,,,,,,,Linux,,,,,,,,,2017-10-03T06:28:53.259,Linux,,,,,95455ee7-5a96-4049-b9a3-017a7304a4e2,,/event?event_type_id=36&userId=95455ee7-5a96-4049-b9a3-017a7304a4e2,,,,,,,,,,Other,,,,,,"Mozilla/5.0 (X11; Linux x86_64) AppleWebKit/537.36 (KHTML, like Gecko) Chrome/58.0.3029.110 Safari/537.36"
,,,,,,,,,,,,Other,,,,,58,Chrome,,,,,,PC,,2b7b368c-a804-11e7-ae29-0242c0a80006,,,,,,,,,192.168.0.1,36,,,,,,,,,,,,,,UTC,,,,,,,,,Linux,,,,,,,,,2017-10-03T06:29:12.093,Linux,,,,,95455ee7-5a96-4049-b9a3-017a7304a4e2,,/event?event_type_id=36&userId=95455ee7-5a96-4049-b9a3-017a7304a4e2,,,,,,,,,,Other,,,,,,"Mozilla/5.0 (X11; Linux x86_64) AppleWebKit/537.36 (KHTML, like Gecko) Chrome/58.0.3029.110 Safari/537.36"
,,,,,,,,,,,,Other,,,,,58,Chrome,,,,,,PC,,2cf3308e-a804-11e7-ae29-0242c0a80006,,,,,,,,,192.168.0.1,36,,,,,,,,,,,,,,UTC,,,,,,,,,Linux,,,,,,,,,2017-10-03T06:29:14.556,Linux,,,,,95455ee7-5a96-4049-b9a3-017a7304a4e2,,/event?event_type_id=36&userId=95455ee7-5a96-4049-b9a3-017a7304a4e2,,,,,,,,,,Other,,,,,,"Mozilla/5.0 (X11; Linux x86_64) AppleWebKit/537.36 (KHTML, like Gecko) Chrome/58.0.3029.110 Safari/537.36"
