country,referer,countNonFallbackImps,expNetPayout,bannerId,countFallbackImps,networkName,landingpage,language,dspId,landingPageId,expPubPayout,pubPayablePayout,deviceMaker,adPosition,isCookieAccepted,bidCurrencyUsd,geoId,browserVersion,browserName,siteAppId,actPubPayout,impid,height,zip,deviceType,serviceFee,eventId,bidCurrency,campaignType,actNetEur,countCreatives,sectionCategory,campaignId,actNetOther,networkAdId,ipAddress,eventType,netPayablePayout,actNetPayout,landingPageDomain,creativeAttr,requestid,domain,actionId,bidfloor,countNoAds,region,countRequests,countClicks,city,timezone,dealId,isOrganic,requesturi,countBids,isFloorOptimized,adGroupId,creativeId,bidCurrencyOther,publisherId,osVersion,lineItemType,networkCampaignId,isAnonymized,siteCategory,event,bidCurrencyEur,winBidder,email,timestamp,os,lineItemId,countVideo,mobile,isSecure,userId,directPayment,uri,agencyName,advertiserId,actNetUsd,actionType,bidderCreativeId,creativeType,width,videoEventType,isLowerBidfloor,deviceModel,seatId,partnerId,countImpressions,bid,pricingType,user-agent
,,,,,,,http://google.com,,,,,,Other,,,,,58,Chrome,,,,,,PC,,16091d7f-a822-11e7-8817-0242c0a80008,,,,,,100,,,192.168.0.1,2,,,,,,,1,,,,,,,UTC,,,,,,3,,,,Linux,,,,,,,,testing@thumbtack.net,2017-10-03T10:03:21.017,Linux,,,,,test_user1,,/pix?event_type_id=2&userId=test_user1&email=testing@thumbtack.net&action_id=1&campaignid=100&landingpage=http://google.com&adgroupid=3,,,,,,,,,,Other,,,,,,"Mozilla/5.0 (X11; Linux x86_64) AppleWebKit/537.36 (KHTML, like Gecko) Chrome/58.0.3029.110 Safari/537.36"
,,,,,,,http://google.com,,,,,,Other,,,,,58,Chrome,,,,,,PC,,1a20a191-a822-11e7-8817-0242c0a80008,,,,,,100,,,192.168.0.1,2,,,,,,,1,,,,,,,UTC,,,,,,3,,,,Linux,,,,,,,,testing@thumbtack.net,2017-10-03T10:03:27.880,Linux,,,,,test_user1,,/pix?event_type_id=2&userId=test_user1&email=testing@thumbtack.net&action_id=1&campaignid=100&landingpage=http://google.com&adgroupid=3,,,,,,,,,,Other,,,,,,"Mozilla/5.0 (X11; Linux x86_64) AppleWebKit/537.36 (KHTML, like Gecko) Chrome/58.0.3029.110 Safari/537.36"
,,,,,,,http://google.com,,,,,,Other,,,,,58,Chrome,,,,,,PC,,1d45d663-a822-11e7-8817-0242c0a80008,,,,,,100,,,192.168.0.1,2,,,,,,,1,,,,,,,UTC,,,,,,3,,,,Linux,,,,,,,,testing@thumbtack.net,2017-10-03T10:03:33.156,Linux,,,,,test_user1,,/event?event_type_id=2&userId=test_user1&email=testing@thumbtack.net&action_id=1&campaignid=100&landingpage=http://google.com&adgroupid=3,,,,,,,,,,Other,,,,,,"Mozilla/5.0 (X11; Linux x86_64) AppleWebKit/537.36 (KHTML, like Gecko) Chrome/58.0.3029.110 Safari/537.36"
