country,referer,countNonFallbackImps,expNetPayout,bannerId,countFallbackImps,networkName,landingpage,language,dspId,landingPageId,expPubPayout,pubPayablePayout,deviceMaker,adPosition,isCookieAccepted,bidCurrencyUsd,geoId,browserVersion,browserName,siteAppId,actPubPayout,impid,height,zip,deviceType,serviceFee,eventId,bidCurrency,campaignType,actNetEur,countCreatives,sectionCategory,campaignId,actNetOther,networkAdId,ipAddress,eventType,netPayablePayout,actNetPayout,landingPageDomain,creativeAttr,requestid,domain,actionId,bidfloor,countNoAds,region,countRequests,countClicks,city,timezone,dealId,isOrganic,requesturi,countBids,isFloorOptimized,adGroupId,creativeId,bidCurrencyOther,publisherId,osVersion,lineItemType,networkCampaignId,isAnonymized,siteCategory,event,bidCurrencyEur,winBidder,email,timestamp,os,lineItemId,countVideo,mobile,isSecure,userId,directPayment,uri,agencyName,advertiserId,actNetUsd,actionType,bidderCreativeId,creativeType,width,videoEventType,isLowerBidfloor,deviceModel,seatId,partnerId,countImpressions,bid,pricingType,user-agent
,,,,,,,http://google.com,,,,,,Other,,,,,0,Other,,,,,,Other,,7b97a74c-a822-11e7-a6c3-0242c0a80006,,,,,,100,,,192.168.0.1,1,,,,,,,1,,,,,,,UTC,,,,,,99,,,,Other,,,,,,,,testing@thumbtack.net,2017-10-03T10:06:11.452,Other,,,,,test_user1,,/event?event_type_id=1&campaignid=100&action_id=1&email=testing%40thumbtack.net&landingPage=http%3A%2F%2Fgoogle.com&adgroupid=99&userId=test_user1,,,,,,,,,,Other,,,,,,My User Agent 1.0
,,,,,,,http://google.com,,,,,,Other,,,,,0,Other,,,,,,Other,,7f3e411e-a822-11e7-a6c3-0242c0a80006,,,,,,100,,,192.168.0.1,1,,,,,,,1,,,,,,,UTC,,,,,,99,,,,Other,,,,,,,,testing@thumbtack.net,2017-10-03T10:06:17.524,Other,,,,,test_user1,,/event?event_type_id=1&campaignid=100&action_id=1&email=testing%40thumbtack.net&landingPage=http%3A%2F%2Fgoogle.com&adgroupid=99&userId=test_user1,,,,,,,,,,Other,,,,,,My User Agent 1.0
,,,,,,,http://google.com,,,,,,Other,,,,,0,Other,,,,,,Other,,8261ef50-a822-11e7-a6c3-0242c0a80006,,,,,,100,,,192.168.0.1,1,,,,,,,1,,,,,,,UTC,,,,,,99,,,,Other,,,,,,,,testing@thumbtack.net,2017-10-03T10:06:22.791,Other,,,,,test_user1,,/event?event_type_id=1&campaignid=100&action_id=1&email=testing%40thumbtack.net&landingPage=http%3A%2F%2Fgoogle.com&adgroupid=99&userId=test_user1,,,,,,,,,,Other,,,,,,My User Agent 1.0
,,,,,,,http://google.com,,,,,,Other,,,,,0,Other,,,,,,Other,,8591f992-a822-11e7-a6c3-0242c0a80006,,,,,,100,,,192.168.0.1,1,,,,,,,1,,,,,,,UTC,,,,,,99,,,,Other,,,,,,,,testing@thumbtack.net,2017-10-03T10:06:28.139,Other,,,,,test_user1,,/event?event_type_id=1&campaignid=100&action_id=1&email=testing%40thumbtack.net&landingPage=http%3A%2F%2Fgoogle.com&adgroupid=99&userId=test_user1,,,,,,,,,,Other,,,,,,My User Agent 1.0
,,,,,,,http://google.com,,,,,,Other,,,,,0,Other,,,,,,Other,,88b3abf4-a822-11e7-a6c3-0242c0a80006,,,,,,100,,,192.168.0.1,1,,,,,,,1,,,,,,,UTC,,,,,,99,,,,Other,,,,,,,,testing@thumbtack.net,2017-10-03T10:06:33.393,Other,,,,,test_user1,,/event?event_type_id=1&campaignid=100&action_id=1&email=testing%40thumbtack.net&landingPage=http%3A%2F%2Fgoogle.com&adgroupid=99&userId=test_user1,,,,,,,,,,Other,,,,,,My User Agent 1.0
,,,,,,,http://google.com,,,,,,Other,,,,,0,Other,,,,,,Other,,8bd6bde6-a822-11e7-a6c3-0242c0a80006,,,,,,100,,,192.168.0.1,1,,,,,,,1,,,,,,,UTC,,,,,,99,,,,Other,,,,,,,,testing@thumbtack.net,2017-10-03T10:06:38.656,Other,,,,,test_user1,,/event?event_type_id=1&campaignid=100&action_id=1&email=testing%40thumbtack.net&landingPage=http%3A%2F%2Fgoogle.com&adgroupid=99&userId=test_user1,,,,,,,,,,Other,,,,,,My User Agent 1.0
,,,,,,,http://google.com,,,,,,Other,,,,,0,Other,,,,,,Other,,8efa9328-a822-11e7-a6c3-0242c0a80006,,,,,,100,,,192.168.0.1,1,,,,,,,1,,,,,,,UTC,,,,,,99,,,,Other,,,,,,,,testing@thumbtack.net,2017-10-03T10:06:43.923,Other,,,,,test_user1,,/event?event_type_id=1&campaignid=100&action_id=1&email=testing%40thumbtack.net&landingPage=http%3A%2F%2Fgoogle.com&adgroupid=99&userId=test_user1,,,,,,,,,,Other,,,,,,My User Agent 1.0
