country,referer,countNonFallbackImps,expNetPayout,bannerId,countFallbackImps,networkName,language,dspId,landingPageId,expPubPayout,pubPayablePayout,deviceMaker,adPosition,isCookieAccepted,bidCurrencyUsd,geoId,browserVersion,browserName,siteAppId,actPubPayout,impid,height,zip,deviceType,serviceFee,eventId,bidCurrency,campaignType,actNetEur,countCreatives,sectionCategory,campaignId,actNetOther,networkAdId,ipAddress,eventType,netPayablePayout,actNetPayout,landingPageDomain,creativeAttr,requestid,domain,actionId,bidfloor,countNoAds,region,countRequests,countClicks,city,timezone,dealId,isOrganic,requesturi,countBids,isFloorOptimized,creativeId,bidCurrencyOther,publisherId,osVersion,lineItemType,networkCampaignId,isAnonymized,siteCategory,event,bidCurrencyEur,winBidder,email,timestamp,os,lineItemId,countVideo,mobile,isSecure,userId,directPayment,uri,agencyName,advertiserId,actNetUsd,actionType,bidderCreativeId,creativeType,width,videoEventType,isLowerBidfloor,deviceModel,seatId,partnerId,countImpressions,bid,pricingType,user-agent
,,,,,,,,,,,,Other,,,,,58,Chrome,,,,,,PC,,ecbd2329-a780-11e7-b172-0242c0a80007,,,,,,,,,192.168.0.1,1,,,,,,,,,,,,,,UTC,,,,,,,,,Linux,,,,,,,,,2017-10-02T14:49:42.774,Linux,,,,,123,,/pix?event_type_id=1,,,,,,,,,,Other,,,,,,"Mozilla/5.0 (X11; Linux x86_64) AppleWebKit/537.36 (KHTML, like Gecko) Chrome/58.0.3029.110 Safari/537.36"
,,,,,,,,,,,,Other,,,,,58,Chrome,,,,,,PC,,ee133d4b-a780-11e7-b172-0242c0a80007,,,,,,,,,192.168.0.1,1,,,,,,,,,,,,,,UTC,,,,,,,,,Linux,,,,,,,,,2017-10-02T14:49:44.999,Linux,,,,,123,,/pix?event_type_id=1,,,,,,,,,,Other,,,,,,"Mozilla/5.0 (X11; Linux x86_64) AppleWebKit/537.36 (KHTML, like Gecko) Chrome/58.0.3029.110 Safari/537.36"
,,,,,,,,,,,,Other,,,,,58,Chrome,,,,,,PC,,eec1579d-a780-11e7-b172-0242c0a80007,,,,,,,,,192.168.0.1,1,,,,,,,,,,,,,,UTC,,,,,,,,,Linux,,,,,,,,,2017-10-02T14:49:46.144,Linux,,,,,123,,/pix?event_type_id=1,,,,,,,,,,Other,,,,,,"Mozilla/5.0 (X11; Linux x86_64) AppleWebKit/537.36 (KHTML, like Gecko) Chrome/58.0.3029.110 Safari/537.36"
,,,,,,,,,,,,Other,,,,,58,Chrome,,,,,,PC,,ef546fdf-a780-11e7-b172-0242c0a80007,,,,,,,,,192.168.0.1,1,,,,,,,,,,,,,,UTC,,,,,,,,,Linux,,,,,,,,,2017-10-02T14:49:47.104,Linux,,,,,123,,/pix?event_type_id=1,,,,,,,,,,Other,,,,,,"Mozilla/5.0 (X11; Linux x86_64) AppleWebKit/537.36 (KHTML, like Gecko) Chrome/58.0.3029.110 Safari/537.36"
,,,,,,,,,,,,Other,,,,,58,Chrome,,,,,,PC,,effff221-a780-11e7-b172-0242c0a80007,,,,,,,,,192.168.0.1,1,,,,,,,,,,,,,,UTC,,,,,,,,,Linux,,,,,,,,,2017-10-02T14:49:48.228,Linux,,,,,123,,/pix?event_type_id=1,,,,,,,,,,Other,,,,,,"Mozilla/5.0 (X11; Linux x86_64) AppleWebKit/537.36 (KHTML, like Gecko) Chrome/58.0.3029.110 Safari/537.36"
,,,,,,,,,,,,Other,,,,,58,Chrome,,,,,,PC,,f0aecfc3-a780-11e7-b172-0242c0a80007,,,,,,,,,192.168.0.1,1,,,,,,,,,,,,,,UTC,,,,,,,,,Linux,,,,,,,,,2017-10-02T14:49:49.374,Linux,,,,,123,,/pix?event_type_id=1,,,,,,,,,,Other,,,,,,"Mozilla/5.0 (X11; Linux x86_64) AppleWebKit/537.36 (KHTML, like Gecko) Chrome/58.0.3029.110 Safari/537.36"
,,,,,,,,,,,,Other,,,,,58,Chrome,,,,,,PC,,f12c6435-a780-11e7-b172-0242c0a80007,,,,,,,,,192.168.0.1,1,,,,,,,,,,,,,,UTC,,,,,,,,,Linux,,,,,,,,,2017-10-02T14:49:50.197,Linux,,,,,123,,/pix?event_type_id=1,,,,,,,,,,Other,,,,,,"Mozilla/5.0 (X11; Linux x86_64) AppleWebKit/537.36 (KHTML, like Gecko) Chrome/58.0.3029.110 Safari/537.36"
,,,,,,,,,,,,Other,,,,,58,Chrome,,,,,,PC,,f1a93557-a780-11e7-b172-0242c0a80007,,,,,,,,,192.168.0.1,1,,,,,,,,,,,,,,UTC,,,,,,,,,Linux,,,,,,,,,2017-10-02T14:49:51.015,Linux,,,,,123,,/pix?event_type_id=1,,,,,,,,,,Other,,,,,,"Mozilla/5.0 (X11; Linux x86_64) AppleWebKit/537.36 (KHTML, like Gecko) Chrome/58.0.3029.110 Safari/537.36"
,,,,,,,,,,,,Other,,,,,58,Chrome,,,,,,PC,,f2572899-a780-11e7-b172-0242c0a80007,,,,,,,,,192.168.0.1,1,,,,,,,,,,,,,,UTC,,,,,,,,,Linux,,,,,,,,,2017-10-02T14:49:52.155,Linux,,,,,123,,/pix?event_type_id=1,,,,,,,,,,Other,,,,,,"Mozilla/5.0 (X11; Linux x86_64) AppleWebKit/537.36 (KHTML, like Gecko) Chrome/58.0.3029.110 Safari/537.36"
,,,,,,,,,,,,Other,,,,,58,Chrome,,,,,,PC,,f33ec97b-a780-11e7-b172-0242c0a80007,,,,,,,,,192.168.0.1,1,,,,,,,,,,,,,,UTC,,,,,,,,,Linux,,,,,,,,,2017-10-02T14:49:53.673,Linux,,,,,123,,/pix?event_type_id=1,,,,,,,,,,Other,,,,,,"Mozilla/5.0 (X11; Linux x86_64) AppleWebKit/537.36 (KHTML, like Gecko) Chrome/58.0.3029.110 Safari/537.36"
,,,,,,,,,,,,Other,,,,,58,Chrome,,,,,,PC,,f40526bd-a780-11e7-b172-0242c0a80007,,,,,,,,,192.168.0.1,1,,,,,,,,,,,,,,UTC,,,,,,,,,Linux,,,,,,,,,2017-10-02T14:49:54.973,Linux,,,,,123,,/pix?event_type_id=1,,,,,,,,,,Other,,,,,,"Mozilla/5.0 (X11; Linux x86_64) AppleWebKit/537.36 (KHTML, like Gecko) Chrome/58.0.3029.110 Safari/537.36"
,,,,,,,,,,,,Other,,,,,58,Chrome,,,,,,PC,,f52822ef-a780-11e7-b172-0242c0a80007,,,,,,,,,192.168.0.1,1,,,,,,,,,,,,,,UTC,,,,,,,,,Linux,,,,,,,,,2017-10-02T14:49:56.881,Linux,,,,,123,,/pix?event_type_id=1,,,,,,,,,,Other,,,,,,"Mozilla/5.0 (X11; Linux x86_64) AppleWebKit/537.36 (KHTML, like Gecko) Chrome/58.0.3029.110 Safari/537.36"
,,,,,,,,,,,,Other,,,,,58,Chrome,,,,,,PC,,f5e5f3b1-a780-11e7-b172-0242c0a80007,,,,,,,,,192.168.0.1,1,,,,,,,,,,,,,,UTC,,,,,,,,,Linux,,,,,,,,,2017-10-02T14:49:58.144,Linux,,,,,123,,/pix?event_type_id=1,,,,,,,,,,Other,,,,,,"Mozilla/5.0 (X11; Linux x86_64) AppleWebKit/537.36 (KHTML, like Gecko) Chrome/58.0.3029.110 Safari/537.36"
,,,,,,,,,,,,Other,,,,,58,Chrome,,,,,,PC,,f69e9553-a780-11e7-b172-0242c0a80007,,,,,,,,,192.168.0.1,1,,,,,,,,,,,,,,UTC,,,,,,,,,Linux,,,,,,,,,2017-10-02T14:49:59.333,Linux,,,,,123,,/pix?event_type_id=1,,,,,,,,,,Other,,,,,,"Mozilla/5.0 (X11; Linux x86_64) AppleWebKit/537.36 (KHTML, like Gecko) Chrome/58.0.3029.110 Safari/537.36"
,,,,,,,,,,,,Other,,,,,58,Chrome,,,,,,PC,,f7793de5-a780-11e7-b172-0242c0a80007,,,,,,,,,192.168.0.1,1,,,,,,,,,,,,,,UTC,,,,,,,,,Linux,,,,,,,,,2017-10-02T14:50:00.767,Linux,,,,,123,,/pix?event_type_id=1,,,,,,,,,,Other,,,,,,"Mozilla/5.0 (X11; Linux x86_64) AppleWebKit/537.36 (KHTML, like Gecko) Chrome/58.0.3029.110 Safari/537.36"
,,,,,,,,,,,,Other,,,,,58,Chrome,,,,,,PC,,f854a9c7-a780-11e7-b172-0242c0a80007,,,,,,,,,192.168.0.1,1,,,,,,,,,,,,,,UTC,,,,,,,,,Linux,,,,,,,,,2017-10-02T14:50:02.204,Linux,,,,,123,,/pix?event_type_id=1,,,,,,,,,,Other,,,,,,"Mozilla/5.0 (X11; Linux x86_64) AppleWebKit/537.36 (KHTML, like Gecko) Chrome/58.0.3029.110 Safari/537.36"
,,,,,,,,,,,,Other,,,,,58,Chrome,,,,,,PC,,f8bf798a-a780-11e7-b172-0242c0a80007,,,,,,,,,192.168.0.1,1,,,,,,,,,,,,,,UTC,,,,,,,,,Linux,,,,,,,,,2017-10-02T14:50:02.905,Linux,,,,,123,,/pix?event_type_id=1,,,,,,,,,,Other,,,,,,"Mozilla/5.0 (X11; Linux x86_64) AppleWebKit/537.36 (KHTML, like Gecko) Chrome/58.0.3029.110 Safari/537.36"
,,,,,,,,,,,,Other,,,,,58,Chrome,,,,,,PC,,f908696c-a780-11e7-b172-0242c0a80007,,,,,,,,,192.168.0.1,1,,,,,,,,,,,,,,UTC,,,,,,,,,Linux,,,,,,,,,2017-10-02T14:50:03.382,Linux,,,,,123,,/pix?event_type_id=1,,,,,,,,,,Other,,,,,,"Mozilla/5.0 (X11; Linux x86_64) AppleWebKit/537.36 (KHTML, like Gecko) Chrome/58.0.3029.110 Safari/537.36"
,,,,,,,,,,,,Other,,,,,58,Chrome,,,,,,PC,,f94c503e-a780-11e7-b172-0242c0a80007,,,,,,,,,192.168.0.1,1,,,,,,,,,,,,,,UTC,,,,,,,,,Linux,,,,,,,,,2017-10-02T14:50:03.828,Linux,,,,,123,,/pix?event_type_id=1,,,,,,,,,,Other,,,,,,"Mozilla/5.0 (X11; Linux x86_64) AppleWebKit/537.36 (KHTML, like Gecko) Chrome/58.0.3029.110 Safari/537.36"
,,,,,,,,,,,,Other,,,,,58,Chrome,,,,,,PC,,f9807fa0-a780-11e7-b172-0242c0a80007,,,,,,,,,192.168.0.1,1,,,,,,,,,,,,,,UTC,,,,,,,,,Linux,,,,,,,,,2017-10-02T14:50:04.169,Linux,,,,,123,,/pix?event_type_id=1,,,,,,,,,,Other,,,,,,"Mozilla/5.0 (X11; Linux x86_64) AppleWebKit/537.36 (KHTML, like Gecko) Chrome/58.0.3029.110 Safari/537.36"
,,,,,,,,,,,,Other,,,,,58,Chrome,,,,,,PC,,f9c047c2-a780-11e7-b172-0242c0a80007,,,,,,,,,192.168.0.1,1,,,,,,,,,,,,,,UTC,,,,,,,,,Linux,,,,,,,,,2017-10-02T14:50:04.587,Linux,,,,,123,,/pix?event_type_id=1,,,,,,,,,,Other,,,,,,"Mozilla/5.0 (X11; Linux x86_64) AppleWebKit/537.36 (KHTML, like Gecko) Chrome/58.0.3029.110 Safari/537.36"
,,,,,,,,,,,,Other,,,,,58,Chrome,,,,,,PC,,fa06c6a4-a780-11e7-b172-0242c0a80007,,,,,,,,,192.168.0.1,1,,,,,,,,,,,,,,UTC,,,,,,,,,Linux,,,,,,,,,2017-10-02T14:50:05.050,Linux,,,,,123,,/pix?event_type_id=1,,,,,,,,,,Other,,,,,,"Mozilla/5.0 (X11; Linux x86_64) AppleWebKit/537.36 (KHTML, like Gecko) Chrome/58.0.3029.110 Safari/537.36"
,,,,,,,,,,,,Other,,,,,58,Chrome,,,,,,PC,,fa67d266-a780-11e7-b172-0242c0a80007,,,,,,,,,192.168.0.1,1,,,,,,,,,,,,,,UTC,,,,,,,,,Linux,,,,,,,,,2017-10-02T14:50:05.686,Linux,,,,,123,,/pix?event_type_id=1,,,,,,,,,,Other,,,,,,"Mozilla/5.0 (X11; Linux x86_64) AppleWebKit/537.36 (KHTML, like Gecko) Chrome/58.0.3029.110 Safari/537.36"
,,,,,,,,,,,,Other,,,,,58,Chrome,,,,,,PC,,fc2057d8-a780-11e7-b172-0242c0a80007,,,,,,,,,192.168.0.1,1,,,,,,,,,,,,,,UTC,,,,,,,,,Linux,,,,,,,,,2017-10-02T14:50:08.572,Linux,,,,,123,,/pix?event_type_id=1,,,,,,,,,,Other,,,,,,"Mozilla/5.0 (X11; Linux x86_64) AppleWebKit/537.36 (KHTML, like Gecko) Chrome/58.0.3029.110 Safari/537.36"
,,,,,,,,,,,,Other,,,,,58,Chrome,,,,,,PC,,fce9c25a-a780-11e7-b172-0242c0a80007,,,,,,,,,192.168.0.1,1,,,,,,,,,,,,,,UTC,,,,,,,,,Linux,,,,,,,,,2017-10-02T14:50:09.893,Linux,,,,,123,,/pix?event_type_id=1,,,,,,,,,,Other,,,,,,"Mozilla/5.0 (X11; Linux x86_64) AppleWebKit/537.36 (KHTML, like Gecko) Chrome/58.0.3029.110 Safari/537.36"
,,,,,,,,,,,,Other,,,,,58,Chrome,,,,,,PC,,fd96cb3c-a780-11e7-b172-0242c0a80007,,,,,,,,,192.168.0.1,1,,,,,,,,,,,,,,UTC,,,,,,,,,Linux,,,,,,,,,2017-10-02T14:50:11.026,Linux,,,,,123,,/pix?event_type_id=1,,,,,,,,,,Other,,,,,,"Mozilla/5.0 (X11; Linux x86_64) AppleWebKit/537.36 (KHTML, like Gecko) Chrome/58.0.3029.110 Safari/537.36"
,,,,,,,,,,,,Other,,,,,58,Chrome,,,,,,PC,,fe280ebe-a780-11e7-b172-0242c0a80007,,,,,,,,,192.168.0.1,1,,,,,,,,,,,,,,UTC,,,,,,,,,Linux,,,,,,,,,2017-10-02T14:50:11.979,Linux,,,,,123,,/pix?event_type_id=1,,,,,,,,,,Other,,,,,,"Mozilla/5.0 (X11; Linux x86_64) AppleWebKit/537.36 (KHTML, like Gecko) Chrome/58.0.3029.110 Safari/537.36"
,,,,,,,,,,,,Other,,,,,58,Chrome,,,,,,PC,,fea63f70-a780-11e7-b172-0242c0a80007,,,,,,,,,192.168.0.1,1,,,,,,,,,,,,,,UTC,,,,,,,,,Linux,,,,,,,,,2017-10-02T14:50:12.805,Linux,,,,,123,,/pix?event_type_id=1,,,,,,,,,,Other,,,,,,"Mozilla/5.0 (X11; Linux x86_64) AppleWebKit/537.36 (KHTML, like Gecko) Chrome/58.0.3029.110 Safari/537.36"
